------------------------------------------------------------------------
r1217034 | scripty | 2011-01-26 02:53:20 +1300 (Wed, 26 Jan 2011) | 1 line

SVN_SILENT made messages (.desktop file)
------------------------------------------------------------------------
r1217883 | scripty | 2011-01-30 00:46:54 +1300 (Sun, 30 Jan 2011) | 1 line

SVN_SILENT made messages (.desktop file)
------------------------------------------------------------------------
r1218245 | pino | 2011-02-02 02:59:23 +1300 (Wed, 02 Feb 2011) | 5 lines

do not cache XSCREENSAVER_FILE_FOUND (cached by find_file)

otherwise any search after the first will hold the result of the first search
CCBUG: 209445

------------------------------------------------------------------------
r1218473 | scripty | 2011-02-03 01:59:56 +1300 (Thu, 03 Feb 2011) | 1 line

SVN_SILENT made messages (.desktop file)
------------------------------------------------------------------------
r1218769 | scripty | 2011-02-05 00:28:01 +1300 (Sat, 05 Feb 2011) | 1 line

SVN_SILENT made messages (.desktop file)
------------------------------------------------------------------------
r1221498 | scripty | 2011-02-19 02:46:30 +1300 (Sat, 19 Feb 2011) | 1 line

SVN_SILENT made messages (.desktop file)
------------------------------------------------------------------------
r1222054 | scripty | 2011-02-22 02:29:21 +1300 (Tue, 22 Feb 2011) | 1 line

SVN_SILENT made messages (.desktop file)
------------------------------------------------------------------------
